%YAML 1.1
%TAG !u! tag:unity3d.com,2011:
--- !u!114 &11400000
MonoBehaviour:
  m_ObjectHideFlags: 0
  m_PrefabParentObject: {fileID: 0}
  m_PrefabInternal: {fileID: 0}
  m_GameObject: {fileID: 0}
  m_Enabled: 1
  m_EditorHideFlags: 0
  m_Script: {fileID: 11500000, guid: b003cd10d7fdf4602bef0a1039a3f6e5, type: 3}
  m_Name: UIForest
  m_EditorClassIdentifier: 
  Encoding: Forest
  UISprite: {fileID: 21300000, guid: 4e3153fe5927c405482e54459b1c91d9, type: 3}
