%YAML 1.1
%TAG !u! tag:unity3d.com,2011:
--- !u!114 &11400000
MonoBehaviour:
  m_ObjectHideFlags: 0
  m_PrefabParentObject: {fileID: 0}
  m_PrefabInternal: {fileID: 0}
  m_GameObject: {fileID: 0}
  m_Enabled: 1
  m_EditorHideFlags: 0
  m_Script: {fileID: 11500000, guid: 4b93a2a27869e43fcab2d08fb5f73036, type: 3}
  m_Name: Lost
  m_EditorClassIdentifier: 
  factionName: 
  damageType: 0
  minDmg: 0
  maxDmg: 0
  secondaryDamageType: 0
  attackSpeed: 0
  range: 0
  secondaryMinDmg: 0
  secondaryMaxDmg: 0
  minCritDmg: 0
  maxCritDmg: 0
  critChance: 0
